digraph "C:/Users/777/Desktop/Long_arr/Long_arr/Long.h"
{
  edge [fontname="Helvetica",fontsize="10",labelfontname="Helvetica",labelfontsize="10"];
  node [fontname="Helvetica",fontsize="10",shape=record];
  Node1 [label="C:/Users/777/Desktop\l/Long_arr/Long_arr/Long.h",height=0.2,width=0.4,color="black", fillcolor="grey75", style="filled" fontcolor="black"];
  Node1 -> Node2 [dir="back",color="midnightblue",fontsize="10",style="solid"];
  Node2 [label="C:/Users/777/Desktop\l/Long_arr/Long_arr/Long.cpp",height=0.2,width=0.4,color="black", fillcolor="white", style="filled",URL="$_long_8cpp.html"];
  Node1 -> Node3 [dir="back",color="midnightblue",fontsize="10",style="solid"];
  Node3 [label="C:/Users/777/Desktop\l/Long_arr/Long_arr/main.cpp",height=0.2,width=0.4,color="black", fillcolor="white", style="filled",URL="$main_8cpp.html"];
  Node1 -> Node4 [dir="back",color="midnightblue",fontsize="10",style="solid"];
  Node4 [label="C:/Users/777/Desktop\l/Long_arr/Long_arr/test\l_long.h",height=0.2,width=0.4,color="black", fillcolor="white", style="filled",URL="$test__long_8h.html"];
  Node4 -> Node5 [dir="back",color="midnightblue",fontsize="10",style="solid"];
  Node5 [label="C:/Users/777/Desktop\l/Long_arr/Long_arr/test\l_long.cpp",height=0.2,width=0.4,color="black", fillcolor="white", style="filled",URL="$test__long_8cpp.html"];
}
