digraph "C:/Users/777/Desktop" {
  compound=true
  node [ fontsize="10", fontname="Helvetica"];
  edge [ labelfontsize="10", labelfontname="Helvetica"];
  subgraph clusterdir_2635f82f3e39a37e5e588042674227aa {
    graph [ bgcolor="#ddddee", pencolor="black", label="777" fontname="Helvetica", fontsize="10", URL="dir_2635f82f3e39a37e5e588042674227aa.html"]
  subgraph clusterdir_72695ba4d4a147050d0774231fd4e28f {
    graph [ bgcolor="#eeeeff", pencolor="black", label="" URL="dir_72695ba4d4a147050d0774231fd4e28f.html"];
    dir_72695ba4d4a147050d0774231fd4e28f [shape=plaintext label="Desktop"];
    dir_3c0e485835386b55a5a6e56723d7bcdb [shape=box label="Long_arr" color="red" fillcolor="white" style="filled" URL="dir_3c0e485835386b55a5a6e56723d7bcdb.html"];
  }
  }
}
