digraph "C:/Users/777" {
  compound=true
  node [ fontsize="10", fontname="Helvetica"];
  edge [ labelfontsize="10", labelfontname="Helvetica"];
  subgraph clusterdir_d522931ffa1371640980b621734a4381 {
    graph [ bgcolor="#ddddee", pencolor="black", label="Users" fontname="Helvetica", fontsize="10", URL="dir_d522931ffa1371640980b621734a4381.html"]
  subgraph clusterdir_2635f82f3e39a37e5e588042674227aa {
    graph [ bgcolor="#eeeeff", pencolor="black", label="" URL="dir_2635f82f3e39a37e5e588042674227aa.html"];
    dir_2635f82f3e39a37e5e588042674227aa [shape=plaintext label="777"];
    dir_72695ba4d4a147050d0774231fd4e28f [shape=box label="Desktop" color="red" fillcolor="white" style="filled" URL="dir_72695ba4d4a147050d0774231fd4e28f.html"];
  }
  }
}
